{
    "data":[{
        "img":"assets/imgs/Cardio.jpg",
        "title": "1 Cardio",
        "description": "10-15 minutes",
        "link": {
            "img": "assets/imgs/wl/Cardio.gif",
            "secimg":"assets/imgs/muscle.png",
            "title": "Cardio",
            "description": "Description for Bench"
        }
    },{
        "img":"assets/imgs/Hyperextension.jpg",
        "title": "2 Hyperextension",
        "description": "12-15 reps",
        "link": {
            "img": "assets/imgs/wl/Hyperextention.gif",
            "secimg":"assets/imgs/muscle.png",
            "title": "Hyperextension",
            "description": "Preparatory position: feet under rollers, we completely straighten the body, we lower then, back is straight, then we rise up to a parallel with the floor, watch that the back is not bent above a parallel with a floor."
        }
    },{
        "img": "assets/imgs/Legraise.jpg",
        "title": "3 Leg raise on bars",
        "description": "10-12 reps",
        "link": {
            "img": "assets/imgs/wl/Leg raise on bars.gif",
            "secimg":"assets/imgs/muscle.png",
            "title": "Leg raise on bars",
            "description": "Preparatory position: we rest hands against hand-rail, the back is pressed to the machine back, legs are crossed and knees are slightly bent, we raise legs to an angle of 90 degrees, we strain abdominal and then we lower slowly legs and then we come back into the preparatory position."
        }
    },{
        "img": "assets/imgs/4Quadriceps.jpg",
        "title": "4 Quadriceps, biceps, buttocks, legs curve",
        "description": "12-15 reps",
        "link": {
            "img": "assets/imgs/wl/Quadriceps,biceps,buttocks,legs.gif",
            "secimg":"assets/imgs/muscle.png",
            "title": "Leg Press",
            "description": "Preparatory position: sitting in the exercise machine, feet are rested against the center of a platform shoulder-width apart, we begin the movement, we smoothly lower legs to an angle of 90 degrees and then pull them up."
        }
    },{
        "img": "assets/imgs/5Deltas.jpg",
        "title": "5 Deltas, a hammer shoulder press",
        "description": "12-15 reps",
        "link": {
            "img": "assets/imgs/wl/Deltas,a hammer shoulder press.gif",
            "secimg":"assets/imgs/muscle.png",
            "title": "Machine shoulder(Military) Press",
            "description": "Preparatory position: sitting, straight back, shoulder blades are strained together, we rest hands against handles, then we pull them up, we strain deltas, and then we come back into the preparatory position."
        }
    },{
        "img": "assets/imgs/7Dumbbell.jpg",
        "title": "6 Dumbbell Lunge",
        "description": "10-15 reps",
        "link": {
            "img": "assets/imgs/wl/Dumbbell Lunge.gif",
            "secimg":"assets/imgs/muscle.png",
            "title": "Dumbbell Lunge",
            "description": "Grab a pair of dumbbells with a neutral grip so that your palms are facing each other. Stand tall with your feet shoulder-width apart and arms fully extended. Push your chest out and take a large step forward with one leg, lowering your rear knee toward the ground while keeping your front shin as vertical as possible. Push off the front leg, returning back to the starting position. Alternate legs."
        }
    },{
        "img": "assets/imgs/8Triceps.jpg",
        "title": "7 Triceps the French bench press",
        "description": "12-15 reps",
        "link": {
            "img": "assets/imgs/wl/Triceps the french bench press.gif",
            "secimg":"assets/imgs/muscle.png",
            "title": "Barbell Lying Triceps Extension (French press)",
            "description": "Preparatory position: lying on a bench, we hold a bar in hands in front of ourselves, then we bend elbows, we lower a bar towards the forehead and then we unbend elbows up."
        }
    },{
        "img": "assets/imgs/12Cardio.jpg",
        "title": "8 Cardio",
        "description": "3-8 minutes",
        "link": {
            "img": "assets/imgs/wl/Cardios.gif",
            "secimg":"assets/imgs/muscle.png",
            "title": "Cardio",
            "description": "Description for Cardio"
        }
    },{
        "img": "assets/imgs/14Pull.jpg",
        "title": "9 Pull over",
        "description": "12-15 reps",
        "link": {
            "img": "assets/imgs/wl/Pull over.gif",
            "secimg":"assets/imgs/muscle.png",
            "title": "Straight-Arm Dumbbell Pullover",
            "description": "Preparatory position: back lies on a bench, feet are rested against the floor, hips are lowered slightly lower than a level of shoulders, we hold a dumbbell with two hands as shown in a photo in front of ourselves, then slowly with slightly bent arms we lower a dumbbell and we stretch intercostal muscles, after that we return a dumbbell into the preparatory position."
        }
    },{
        "img": "assets/imgs/Leg.jpg",
        "title": "10 Leg curve in sitting position",
        "description": "12-15 reps",
        "link": {
            "img": "assets/imgs/wl/Leg curve in sitting position.gif",
            "secimg":"assets/imgs/muscle.png",
            "title": "Seated Leg Curl",
            "description": "Preparatory position:  a sitting position, legs between rollers, straight back, hands hold handles, then we bend legs completely straining a hip biceps and then we come back into the preparatory position."
        }
    },{
        "img": "assets/imgs/Hook.jpg",
        "title": "11 Hook crouch",
        "description": "10-15 reps",
        "link": {
            "img": "assets/imgs/wl/Hook crouch.gif",
            "secimg":"assets/imgs/muscle.png",
            "title": "Hack Squat",
            "description": "Preparatory position: legs are rested against a foot platform in parallel, the back is completely pressing on the machine, rollers lie on shoulders, then slowly we crouch to an angle of 90 degrees and then we rise up again."
        }
    }
]
}